Project 1: Exploratory Data Analysis
…
## Rows: 218
## Columns: 2
## $ player    <chr> "Dustin Brown", "Rohan Bopanna", "Chris Guccione", "Benoit …
## $ sec_added <dbl> -6.37, -4.95, -4.63, -4.56, -4.35, -4.25, -4.19, -4.13, -4.…

pivot1 <- tennis_players_time %>% pivot_wider(names_from = "player", 
    values_from = "sec_added")
pivot1 %>% pivot_longer(1:218, names_to = "player", values_to = "sec_added")

## # A tibble: 218 x 2
##    player                sec_added
##    <chr>                     <dbl>
##  1 Dustin Brown              -6.37
##  2 Rohan Bopanna             -4.95
##  3 Chris Guccione            -4.63
##  4 Benoit Paire              -4.56
##  5 Lukas Dlouhy              -4.35
##  6 Brendan Evans             -4.25
##  7 Igor Sijsling             -4.19
##  8 Lukas Rosol               -4.13
##  9 Alexander Kudryavtsev     -4.05
## 10 Sam Querrey               -3.99
## # … with 208 more rows
…
tennis_rankings <- tennis_rankings %>% pivot_longer(cols = c("bestRank", 
    "bestPoints"), names_to = "best", values_to = "value")

2. Joining the datasets

I used left_join to join the two datasets. tennis_players_time had 218 observations of 2 variables and tennis_rankings had 1000 observations of 7 variables before the join. The joined data has 1000 observations of 8 variables because all players within tennis_players_time are found within tennis_rankings. I decided to use left join because I knew dataset 2 contained more players than dataset 1, and I wanted to keep the maximum number of observations possible after joining.

library(tidyverse)
tennis <- left_join(tennis_rankings, tennis_players_time, by = c(name = "player"))
tennis %>% na.omit()

## # A tibble: 60 x 8
##     rank name          country_name  country_id points best      value sec_added
##    <dbl> <chr>         <chr>         <chr>       <dbl> <chr>     <dbl>     <dbl>
##  1     1 Novak Djokov… Serbia        SRB         11740 bestRank      1      2.21
##  2     1 Novak Djokov… Serbia        SRB         11740 bestPoin… 16950      2.21
##  3     2 Rafael Nadal  Spain         ESP          9850 bestRank      1      5.92
##  4     2 Rafael Nadal  Spain         ESP          9850 bestPoin… 15390      5.92
##  5     4 Roger Federer Switzerland   SUI          6630 bestRank      1     -2.43
##  6     4 Roger Federer Switzerland   SUI          6630 bestPoin… 12315     -2.43
##  7    16 Fabio Fognini Italy         ITA          2400 bestRank      9     -1.4 
##  8    16 Fabio Fognini Italy         ITA          2400 bestPoin…  2920     -1.4 
##  9    23 John Isner    United States USA          1850 bestRank      8     -2.33
## 10    23 John Isner    United States USA          1850 bestPoin…  3720     -2.33
## # … with 50 more rows
…
tennis %>% filter(best == "bestPoints") %>% summarize(max(value))

## # A tibble: 1 x 1
##   `max(value)`
##          <dbl>
## 1        16950

tennis %>% group_by(country_name, best) %>% summarize(min(value))

## # A tibble: 122 x 3
## # Groups:   country_name [61]
##    country_name best       `min(value)`
##    <chr>        <chr>             <dbl>
##  1 Argentina    bestPoints           88
##  2 Argentina    bestRank              3
##  3 Australia    bestPoints           99
##  4 Australia    bestRank             13
##  5 Austria      bestPoints           99
##  6 Austria      bestRank              3
##  7 Barbados     bestPoints          523
##  8 Barbados     bestRank            106
##  9 Belarus      bestPoints          424
## 10 Belarus      bestRank             65
## # … with 112 more rows
…
tennis %>% select(8) %>% summarize_all(function(x) mean(!is.na(x)))

## # A tibble: 1 x 1
##   sec_added
##       <dbl>
## 1      0.06

tennis %>% arrange(desc(value))

## # A tibble: 1,000 x 8
##     rank name          country_name    country_id points best    value sec_added
##    <dbl> <chr>         <chr>           <chr>       <dbl> <chr>   <dbl>     <dbl>
##  1     1 Novak Djokov… Serbia          SRB         11740 bestPo… 16950      2.21
##  2     2 Rafael Nadal  Spain           ESP          9850 bestPo… 15390      5.92
##  3   115 Andy Murray   United Kingdom  GBR           547 bestPo… 12685      2.53
##  4     4 Roger Federer Switzerland     SUI          6630 bestPo… 12315     -2.43
##  5     3 Dominic Thiem Austria         AUT          9125 bestPo…  9125     NA   
##  6    18 Stan Wawrinka Switzerland     SUI          2185 bestPo…  6865     NA   
##  7   145 Juan Martin … Argentina       ARG           415 bestPo…  6825      3.23
##  8     7 Alexander Zv… Germany         GER          4650 bestPo…  6630     NA   
##  9    35 Kei Nishikori Japan           JPN          1345 bestPo…  6385     NA   
## 10     6 Daniil Medve… Russian Federa… RUS          5890 bestPo…  5960     NA   
## # … with 990 more rows
…
